<svg width="222" height="468" viewBox="0 0 222 468" fill="none" xmlns="http://www.w3.org/2000/svg">
<g clip-path="url(#clip0_1655_60137)">
<path d="M0 16.3636C0 7.32625 7.45446 0 16.65 0H203.685C212.881 0 220.335 7.32625 220.335 16.3636V451.636C220.335 460.674 212.881 468 203.685 468H16.65C7.45446 468 0 460.674 0 451.636V16.3636Z" fill="#3A4245"/>
<path d="M3.32999 16.3637C3.32999 9.13376 9.29356 3.27277 16.65 3.27277H203.685C211.041 3.27277 217.005 9.13377 217.005 16.3637V451.636C217.005 458.866 211.041 464.727 203.685 464.727H16.65C9.29356 464.727 3.32999 458.866 3.32999 451.636V16.3637Z" fill="#121515"/>
<path d="M220.335 170.182H220.89C221.503 170.182 222 170.606 222 171.129L222 197.598C222 198.121 221.503 198.545 220.89 198.545H220.335L220.335 170.182Z" fill="#121515"/>
<path d="M220.335 90.5455H220.89C221.503 90.5455 222 91.3532 222 92.3496L222 142.741C222 143.738 221.503 144.545 220.89 144.545H220.335L220.335 90.5455Z" fill="#121515"/>
<path fill-rule="evenodd" clip-rule="evenodd" d="M110.167 24C113.386 24 115.995 21.4358 115.995 18.2727C115.995 15.1097 113.386 12.5455 110.167 12.5455C106.949 12.5455 104.34 15.1097 104.34 18.2727C104.34 21.4358 106.949 24 110.167 24Z" fill="#262C2D"/>
<path fill-rule="evenodd" clip-rule="evenodd" d="M110.168 21.8523C112.179 21.8523 113.81 20.2497 113.81 18.2727C113.81 16.2958 112.179 14.6932 110.168 14.6932C108.156 14.6932 106.525 16.2958 106.525 18.2727C106.525 20.2497 108.156 21.8523 110.168 21.8523Z" fill="#121515"/>
<path opacity="0.4" fill-rule="evenodd" clip-rule="evenodd" d="M110.168 17.5568C110.57 17.5568 110.896 17.2363 110.896 16.8409C110.896 16.4455 110.57 16.125 110.168 16.125C109.765 16.125 109.439 16.4455 109.439 16.8409C109.439 17.2363 109.765 17.5568 110.168 17.5568Z" fill="#636F73"/>
</g>
<defs>
<clipPath id="clip0_1655_60137">
<rect width="222" height="468" fill="white"/>
</clipPath>
</defs>
</svg>
