<svg width="16" height="17" viewBox="0 0 16 17" fill="none" xmlns="http://www.w3.org/2000/svg">
<g clip-path="url(#clip0_1508_64736)">
<path d="M12.7001 5.76667C12.8445 5.76667 12.964 5.71944 13.0584 5.625C13.1529 5.53056 13.2001 5.41111 13.2001 5.26667V3.63333H14.8334C14.9779 3.63333 15.0973 3.58611 15.1917 3.49167C15.2862 3.39722 15.3334 3.27778 15.3334 3.13333C15.3334 2.98889 15.2862 2.86944 15.1917 2.775C15.0973 2.68056 14.9779 2.63333 14.8334 2.63333H13.2001V1C13.2001 0.855556 13.1529 0.736111 13.0584 0.641667C12.964 0.547222 12.8445 0.5 12.7001 0.5C12.5556 0.5 12.4362 0.547222 12.3417 0.641667C12.2473 0.736111 12.2001 0.855556 12.2001 1V2.63333H10.5667C10.4223 2.63333 10.3029 2.68056 10.2084 2.775C10.114 2.86944 10.0667 2.98889 10.0667 3.13333C10.0667 3.27778 10.114 3.39722 10.2084 3.49167C10.3029 3.58611 10.4223 3.63333 10.5667 3.63333H12.2001V5.26667C12.2001 5.41111 12.2473 5.53056 12.3417 5.625C12.4362 5.71944 12.5556 5.76667 12.7001 5.76667ZM8.00008 8.33333C8.3223 8.33333 8.5973 8.21944 8.82508 7.99167C9.05286 7.76389 9.16675 7.48889 9.16675 7.16667C9.16675 6.84444 9.05286 6.56944 8.82508 6.34167C8.5973 6.11389 8.3223 6 8.00008 6C7.67786 6 7.40286 6.11389 7.17508 6.34167C6.9473 6.56944 6.83341 6.84444 6.83341 7.16667C6.83341 7.48889 6.9473 7.76389 7.17508 7.99167C7.40286 8.21944 7.67786 8.33333 8.00008 8.33333ZM8.01675 14.9667C7.93897 14.9667 7.86675 14.9556 7.80008 14.9333C7.73341 14.9111 7.6723 14.8778 7.61675 14.8333C5.96119 13.3778 4.7223 12.0278 3.90008 10.7833C3.07786 9.53889 2.66675 8.37778 2.66675 7.3C2.66675 5.63333 3.20286 4.30556 4.27508 3.31667C5.3473 2.32778 6.58897 1.83333 8.00008 1.83333C8.25564 1.83333 8.51119 1.84722 8.76675 1.875C9.0223 1.90278 9.2723 1.96111 9.51675 2.05C9.39453 2.17222 9.28897 2.32778 9.20008 2.51667C9.11119 2.70556 9.06675 2.91111 9.06675 3.13333C9.06675 3.55556 9.21119 3.91111 9.50008 4.2C9.78897 4.48889 10.1445 4.63333 10.5667 4.63333H11.2001V5.26667C11.2001 5.68889 11.3445 6.04444 11.6334 6.33333C11.9223 6.62222 12.2779 6.76667 12.7001 6.76667C12.8001 6.76667 12.9056 6.75556 13.0167 6.73333C13.1279 6.71111 13.2223 6.68333 13.3001 6.65C13.3223 6.68333 13.3334 6.78889 13.3334 6.96667V7.3C13.3334 8.37778 12.9223 9.53889 12.1001 10.7833C11.2779 12.0278 10.039 13.3778 8.38341 14.8333C8.32786 14.8778 8.26953 14.9111 8.20841 14.9333C8.1473 14.9556 8.08341 14.9667 8.01675 14.9667Z" fill="#410B9A"/>
</g>
<defs>
<clipPath id="clip0_1508_64736">
<rect width="16" height="16" fill="white" transform="translate(0 0.5)"/>
</clipPath>
</defs>
</svg>
