<svg width="24" height="24" viewBox="0 0 24 24" fill="none" xmlns="http://www.w3.org/2000/svg">
<path d="M13.5 14.55C13.7167 14.55 13.8958 14.4792 14.0375 14.3375C14.1792 14.1958 14.25 14.0167 14.25 13.8V11.25H16.8C17.0167 11.25 17.1958 11.1792 17.3375 11.0375C17.4792 10.8958 17.55 10.7167 17.55 10.5C17.55 10.2833 17.4792 10.1042 17.3375 9.9625C17.1958 9.82083 17.0167 9.75 16.8 9.75H14.25V7.2C14.25 6.98333 14.1792 6.80417 14.0375 6.6625C13.8958 6.52083 13.7167 6.45 13.5 6.45C13.2833 6.45 13.1042 6.52083 12.9625 6.6625C12.8208 6.80417 12.75 6.98333 12.75 7.2V9.75H10.2C9.98333 9.75 9.80417 9.82083 9.6625 9.9625C9.52083 10.1042 9.45 10.2833 9.45 10.5C9.45 10.7167 9.52083 10.8958 9.6625 11.0375C9.80417 11.1792 9.98333 11.25 10.2 11.25H12.75V13.8C12.75 14.0167 12.8208 14.1958 12.9625 14.3375C13.1042 14.4792 13.2833 14.55 13.5 14.55ZM6.5 19C6.1 19 5.75 18.85 5.45 18.55C5.15 18.25 5 17.9 5 17.5V3.5C5 3.1 5.15 2.75 5.45 2.45C5.75 2.15 6.1 2 6.5 2H20.5C20.9 2 21.25 2.15 21.55 2.45C21.85 2.75 22 3.1 22 3.5V17.5C22 17.9 21.85 18.25 21.55 18.55C21.25 18.85 20.9 19 20.5 19H6.5ZM3.5 22C3.1 22 2.75 21.85 2.45 21.55C2.15 21.25 2 20.9 2 20.5V5.75C2 5.53333 2.07083 5.35417 2.2125 5.2125C2.35417 5.07083 2.53333 5 2.75 5C2.96667 5 3.14583 5.07083 3.2875 5.2125C3.42917 5.35417 3.5 5.53333 3.5 5.75V20.5H18.25C18.4667 20.5 18.6458 20.5708 18.7875 20.7125C18.9292 20.8542 19 21.0333 19 21.25C19 21.4667 18.9292 21.6458 18.7875 21.7875C18.6458 21.9292 18.4667 22 18.25 22H3.5Z" fill="white"/>
</svg>
