<svg width="78" height="78" viewBox="0 0 78 78" fill="none" xmlns="http://www.w3.org/2000/svg">
<path d="M39 55.25C39.7042 55.25 40.2865 55.0198 40.7469 54.5594C41.2073 54.099 41.4375 53.5167 41.4375 52.8125V41.4375H52.8125C53.5167 41.4375 54.099 41.2073 54.5594 40.7469C55.0198 40.2865 55.25 39.7042 55.25 39C55.25 38.2958 55.0198 37.7135 54.5594 37.2531C54.099 36.7927 53.5167 36.5625 52.8125 36.5625H41.4375V25.1875C41.4375 24.4833 41.2073 23.901 40.7469 23.4406C40.2865 22.9802 39.7042 22.75 39 22.75C38.2958 22.75 37.7135 22.9802 37.2531 23.4406C36.7927 23.901 36.5625 24.4833 36.5625 25.1875V36.5625H25.1875C24.4833 36.5625 23.901 36.7927 23.4406 37.2531C22.9802 37.7135 22.75 38.2958 22.75 39C22.75 39.7042 22.9802 40.2865 23.4406 40.7469C23.901 41.2073 24.4833 41.4375 25.1875 41.4375H36.5625V52.8125C36.5625 53.5167 36.7927 54.099 37.2531 54.5594C37.7135 55.0198 38.2958 55.25 39 55.25ZM14.625 68.25C13.325 68.25 12.1875 67.7625 11.2125 66.7875C10.2375 65.8125 9.75 64.675 9.75 63.375V14.625C9.75 13.325 10.2375 12.1875 11.2125 11.2125C12.1875 10.2375 13.325 9.75 14.625 9.75H63.375C64.675 9.75 65.8125 10.2375 66.7875 11.2125C67.7625 12.1875 68.25 13.325 68.25 14.625V63.375C68.25 64.675 67.7625 65.8125 66.7875 66.7875C65.8125 67.7625 64.675 68.25 63.375 68.25H14.625Z" fill="#B1ADC8"/>
</svg>
