<svg width="25" height="25" viewBox="0 0 25 25" fill="none" xmlns="http://www.w3.org/2000/svg">
<path d="M3.3573 24.0581V10.5311L6.39272 8.40216L8.91147 9.61402V24.0581" stroke="#191D2F" stroke-width="1.06899" stroke-linecap="round" stroke-linejoin="round"/>
<path d="M8.91144 9.61403V5.35615L14.2073 1L16.726 3.58749V11.8085L19.3416 10.1053L21.5375 11.2517V24.0581" stroke="#191D2F" stroke-width="1.06899" stroke-linecap="round" stroke-linejoin="round"/>
<path d="M13.3354 1.72058V24.0581" stroke="#191D2F" stroke-width="1.06899" stroke-linecap="round" stroke-linejoin="round"/>
<path d="M6.39276 8.40216V24.0581" stroke="#191D2F" stroke-width="1.06899" stroke-linecap="round" stroke-linejoin="round"/>
<path d="M16.726 11.8085V24.0581" stroke="#191D2F" stroke-width="1.06899" stroke-linecap="round" stroke-linejoin="round"/>
<path d="M19.3417 10.1053V24.0581" stroke="#191D2F" stroke-width="1.06899" stroke-linecap="round" stroke-linejoin="round"/>
<path fill-rule="evenodd" clip-rule="evenodd" d="M1.03244 24.0693H24V24.3285H1L1.03244 24.0693Z" stroke="#191D2F" stroke-width="1.06899" stroke-linecap="round" stroke-linejoin="round"/>
<path fill-rule="evenodd" clip-rule="evenodd" d="M6.39272 24.0581V8.40216L3.3573 10.5311V24.0581H6.39272ZM5.71459 21.9946H5.23022V21.4378H5.71459V21.9946ZM4.48751 21.4378V21.9946H4.00313V21.4378H4.48751ZM5.71459 19.7674H5.23022V19.2106H5.71459V19.7674ZM4.48751 19.7674H4.00313V19.2106H4.48751V19.7674ZM5.71459 17.7368H5.23022V17.18H5.71459V17.7368ZM4.48751 17.7368H4.00313V17.18H4.48751V17.7368ZM5.71459 15.6733H5.23022V15.1493H5.71459V15.6733ZM4.48751 15.6733H4.00313V15.1493H4.48751V15.6733ZM5.71459 13.6426H5.23022V13.1186H5.71459V13.6426ZM4.48751 13.6426H4.00313V13.1186H4.48751V13.6426ZM5.71459 11.612H5.23022V11.0879H5.71459V11.612ZM4.48751 11.612H4.00313V11.0879H4.48751V11.612Z" fill="#191D2F"/>
<path fill-rule="evenodd" clip-rule="evenodd" d="M16.726 11.8085V24.0581H19.3416V10.1053L16.726 11.8085ZM18.6635 21.1431H18.276V20.7173H18.6635V21.1431ZM17.6948 21.1431H17.3073V20.7173H17.6948V21.1431ZM18.6635 19.4399H18.276V19.0469H18.6635V19.4399ZM17.6948 19.4399H17.3073V19.0469H17.6948V19.4399ZM18.6635 17.9006H18.276V17.5075H18.6635V17.9006ZM17.6948 17.9006H17.3073V17.5075H17.6948V17.9006ZM18.6635 16.3612H18.276V15.9354H18.6635V16.3612ZM17.6948 16.3612H17.3073V15.9354H17.6948V16.3612ZM18.6635 14.8218H18.276V14.396H18.6635V14.8218ZM17.6948 14.8218H17.3073V14.396H17.6948V14.8218ZM18.6635 13.2824H18.276V12.8566H18.6635V13.2824ZM17.6948 13.2824H17.3073V12.8566H17.6948V13.2824Z" fill="#191D2F"/>
<path fill-rule="evenodd" clip-rule="evenodd" d="M13.3355 24.0581V1.72058L8.9115 5.35616V9.61405V24.0581H13.3355Z" fill="#191D2F"/>
</svg>
