<svg width="16" height="17" viewBox="0 0 16 17" fill="none" xmlns="http://www.w3.org/2000/svg">
<path d="M12.5499 14.4833C11.0833 14.4833 9.67492 14.225 8.32492 13.7083C6.97492 13.1917 5.78047 12.475 4.74159 11.5583C3.7027 10.6417 2.87492 9.55833 2.25825 8.30833C1.64159 7.05833 1.33325 5.7 1.33325 4.23333C1.33325 3.74444 1.46936 3.33333 1.74159 3C2.01381 2.66667 2.39992 2.5 2.89992 2.5H4.44992C4.74992 2.5 4.98325 2.58611 5.14992 2.75833C5.31659 2.93056 5.43325 3.17778 5.49992 3.5C5.56659 3.83333 5.64159 4.17778 5.72492 4.53333C5.80825 4.88889 5.90547 5.20556 6.01659 5.48333C6.11659 5.71667 6.14714 5.93611 6.10825 6.14167C6.06936 6.34722 5.95547 6.54445 5.76659 6.73333L4.46659 8C4.99992 8.77778 5.74159 9.53056 6.69159 10.2583C7.64159 10.9861 8.56659 11.4833 9.46659 11.75L10.2333 10.2C10.3333 10 10.461 9.86389 10.6166 9.79167C10.7721 9.71944 10.9888 9.69444 11.2666 9.71667C11.5555 9.73889 11.8416 9.75 12.1249 9.75C12.4083 9.75 12.7277 9.73889 13.0833 9.71667C13.4166 9.69444 13.6971 9.78333 13.9249 9.98333C14.1527 10.1833 14.3055 10.5056 14.3833 10.95L14.6499 12.45C14.6499 12.45 14.661 12.5444 14.6833 12.7333C14.6833 13.2 14.4916 13.6083 14.1083 13.9583C13.7249 14.3083 13.2055 14.4833 12.5499 14.4833Z" fill="#410B9A"/>
</svg>
