<svg width="24" height="24" viewBox="0 0 24 24" fill="none" xmlns="http://www.w3.org/2000/svg">
<path d="M19.85 7.35011L16.65 4.15011L17.7 3.10011C17.9833 2.81678 18.3375 2.67928 18.7625 2.68761C19.1875 2.69595 19.5417 2.84178 19.825 3.12511L20.9 4.20011C21.1833 4.48345 21.325 4.83345 21.325 5.25011C21.325 5.66678 21.1833 6.01678 20.9 6.30011L19.85 7.35011ZM3.75 21.0001C3.53333 21.0001 3.35417 20.9293 3.2125 20.7876C3.07083 20.6459 3 20.4668 3 20.2501V18.1001C3 18.0001 3.01667 17.9084 3.05 17.8251C3.08333 17.7418 3.14167 17.6584 3.225 17.5751L15.6 5.20011L18.8 8.40011L6.425 20.7751C6.34167 20.8584 6.25833 20.9168 6.175 20.9501C6.09167 20.9834 6 21.0001 5.9 21.0001H3.75Z" fill="#353344"/>
</svg>
