<svg width="33" height="32" viewBox="0 0 33 32" fill="none" xmlns="http://www.w3.org/2000/svg">
<path d="M24.8333 11.4C24.5444 11.4 24.3056 11.3056 24.1167 11.1167C23.9278 10.9278 23.8333 10.6889 23.8333 10.4V8.7H22.1333C21.8444 8.7 21.6056 8.60556 21.4167 8.41667C21.2278 8.22778 21.1333 7.98889 21.1333 7.7C21.1333 7.41111 21.2278 7.17222 21.4167 6.98333C21.6056 6.79444 21.8444 6.7 22.1333 6.7H23.8333V5C23.8333 4.71111 23.9278 4.47222 24.1167 4.28333C24.3056 4.09444 24.5444 4 24.8333 4C25.1222 4 25.3611 4.09444 25.55 4.28333C25.7389 4.47222 25.8333 4.71111 25.8333 5V6.7H27.5333C27.8222 6.7 28.0611 6.79444 28.25 6.98333C28.4389 7.17222 28.5333 7.41111 28.5333 7.7C28.5333 7.98889 28.4389 8.22778 28.25 8.41667C28.0611 8.60556 27.8222 8.7 27.5333 8.7H25.8333V10.4C25.8333 10.6889 25.7389 10.9278 25.55 11.1167C25.3611 11.3056 25.1222 11.4 24.8333 11.4ZM9.53333 22.6H23.5C23.7222 22.6 23.8778 22.5111 23.9667 22.3333C24.0556 22.1556 24.0333 21.9778 23.9 21.8L20.1 16.7333C19.9889 16.6 19.8556 16.5333 19.7 16.5333C19.5444 16.5333 19.4111 16.6 19.3 16.7333L15.4667 21.7667L12.7333 18.1667C12.6222 18.0111 12.4889 17.9333 12.3333 17.9333C12.1778 17.9333 12.0444 18.0111 11.9333 18.1667L9.13333 21.8C9 21.9778 8.97778 22.1556 9.06667 22.3333C9.15556 22.5111 9.31111 22.6 9.53333 22.6ZM6.5 28C5.96667 28 5.5 27.8 5.1 27.4C4.7 27 4.5 26.5333 4.5 26V6C4.5 5.46667 4.7 5 5.1 4.6C5.5 4.2 5.96667 4 6.5 4H19.1333V10.5667C19.1333 10.8556 19.2278 11.0944 19.4167 11.2833C19.6056 11.4722 19.8444 11.5667 20.1333 11.5667H20.9667V12.4C20.9667 12.6889 21.0611 12.9278 21.25 13.1167C21.4389 13.3056 21.6778 13.4 21.9667 13.4H28.5V26C28.5 26.5333 28.3 27 27.9 27.4C27.5 27.8 27.0333 28 26.5 28H6.5Z" fill="#6D04F2"/>
</svg>
